0 info it worked if it ends with ok
1 verbose cli [ '/usr/local/bin/node',
1 verbose cli   '/usr/local/bin/npm',
1 verbose cli   'install',
1 verbose cli   '-g',
1 verbose cli   'meanio' ]
2 info using npm@1.1.63
3 info using node@v0.9.3-pre
4 verbose read json /usr/local/lib/package.json
5 verbose read json /usr/local/lib/package.json
6 verbose cache add [ 'meanio', null ]
7 silly cache add name=undefined spec="meanio" args=["meanio",null]
8 verbose parsed url { protocol: null,
8 verbose parsed url   slashes: null,
8 verbose parsed url   auth: null,
8 verbose parsed url   host: null,
8 verbose parsed url   port: null,
8 verbose parsed url   hostname: null,
8 verbose parsed url   hash: null,
8 verbose parsed url   search: null,
8 verbose parsed url   query: null,
8 verbose parsed url   pathname: 'meanio',
8 verbose parsed url   path: 'meanio',
8 verbose parsed url   href: 'meanio' }
9 silly lockFile 87da261c-meanio meanio
10 verbose lock meanio /Users/aftabaig/.npm/87da261c-meanio.lock
11 silly lockFile 87da261c-meanio meanio
12 verbose addNamed [ 'meanio', '' ]
13 verbose addNamed [ null, '' ]
14 silly lockFile c47b6573-meanio meanio@
15 verbose lock meanio@ /Users/aftabaig/.npm/c47b6573-meanio.lock
16 silly addNameRange { name: 'meanio', range: '', hasData: false }
17 verbose url raw meanio
18 verbose url resolving [ 'https://registry.npmjs.org/', './meanio' ]
19 verbose url resolved https://registry.npmjs.org/meanio
20 info trying registry request attempt 1 at 06:06:15
21 http GET https://registry.npmjs.org/meanio
22 http 200 https://registry.npmjs.org/meanio
23 silly registry.get cb [ 200,
23 silly registry.get   { date: 'Fri, 23 May 2014 01:06:22 GMT',
23 silly registry.get     server: 'CouchDB/1.5.0 (Erlang OTP/R14B04)',
23 silly registry.get     etag: '"6BK7C5EIIX5PUI5X4O7OGN6ZJ"',
23 silly registry.get     'content-type': 'application/json',
23 silly registry.get     via: '1.1 varnish',
23 silly registry.get     'cache-control': 'max-age=1',
23 silly registry.get     'content-length': '87159',
23 silly registry.get     'accept-ranges': 'bytes',
23 silly registry.get     age: '7',
23 silly registry.get     'x-served-by': 'cache-v42-ASH, cache-at52-ATL',
23 silly registry.get     'x-cache': 'HIT, MISS',
23 silly registry.get     'x-cache-hits': '1, 0',
23 silly registry.get     'x-timer': 'S1400807181.911263943,VS0,VS7,VE83,VE91',
23 silly registry.get     vary: 'Accept',
23 silly registry.get     'keep-alive': 'timeout=10, max=50',
23 silly registry.get     connection: 'Keep-Alive' } ]
24 silly addNameRange number 2 { name: 'meanio', range: '', hasData: true }
25 silly addNameRange versions [ 'meanio',
25 silly addNameRange   [ '0.0.1',
25 silly addNameRange     '0.0.2',
25 silly addNameRange     '0.0.3',
25 silly addNameRange     '0.0.4',
25 silly addNameRange     '0.0.5',
25 silly addNameRange     '0.0.6',
25 silly addNameRange     '0.0.7',
25 silly addNameRange     '0.0.8',
25 silly addNameRange     '0.0.9',
25 silly addNameRange     '0.1.0',
25 silly addNameRange     '0.1.1',
25 silly addNameRange     '0.1.2',
25 silly addNameRange     '0.1.3',
25 silly addNameRange     '0.1.4',
25 silly addNameRange     '0.1.5',
25 silly addNameRange     '0.1.6',
25 silly addNameRange     '0.1.7',
25 silly addNameRange     '0.1.8',
25 silly addNameRange     '0.1.9',
25 silly addNameRange     '0.2.0',
25 silly addNameRange     '0.2.1',
25 silly addNameRange     '0.2.2',
25 silly addNameRange     '0.2.3',
25 silly addNameRange     '0.2.4',
25 silly addNameRange     '0.2.5',
25 silly addNameRange     '0.2.6',
25 silly addNameRange     '0.2.7',
25 silly addNameRange     '0.2.8',
25 silly addNameRange     '0.2.9',
25 silly addNameRange     '0.3.0',
25 silly addNameRange     '0.3.1',
25 silly addNameRange     '0.3.2',
25 silly addNameRange     '0.3.21',
25 silly addNameRange     '0.3.3',
25 silly addNameRange     '0.3.4',
25 silly addNameRange     '0.3.5',
25 silly addNameRange     '0.3.6',
25 silly addNameRange     '0.3.7',
25 silly addNameRange     '0.3.8',
25 silly addNameRange     '0.3.9',
25 silly addNameRange     '0.3.11',
25 silly addNameRange     '0.3.13',
25 silly addNameRange     '0.3.14',
25 silly addNameRange     '0.3.15',
25 silly addNameRange     '0.3.16',
25 silly addNameRange     '0.3.17',
25 silly addNameRange     '0.3.18',
25 silly addNameRange     '0.3.19',
25 silly addNameRange     '0.3.20',
25 silly addNameRange     '0.4.0',
25 silly addNameRange     '0.4.1',
25 silly addNameRange     '0.4.2',
25 silly addNameRange     '0.4.3',
25 silly addNameRange     '0.4.4',
25 silly addNameRange     '0.4.5',
25 silly addNameRange     '0.4.6',
25 silly addNameRange     '0.4.7',
25 silly addNameRange     '0.4.8',
25 silly addNameRange     '0.4.9',
25 silly addNameRange     '0.4.10',
25 silly addNameRange     '0.4.12',
25 silly addNameRange     '0.4.13',
25 silly addNameRange     '0.4.14',
25 silly addNameRange     '0.4.15',
25 silly addNameRange     '0.4.16',
25 silly addNameRange     '0.4.17',
25 silly addNameRange     '0.4.18',
25 silly addNameRange     '0.4.19',
25 silly addNameRange     '0.4.20',
25 silly addNameRange     '0.4.21',
25 silly addNameRange     '0.4.22',
25 silly addNameRange     '0.4.23',
25 silly addNameRange     '0.4.24',
25 silly addNameRange     '0.4.25',
25 silly addNameRange     '0.4.26',
25 silly addNameRange     '0.4.27' ] ]
26 verbose addNamed [ 'meanio', '0.4.27' ]
27 verbose addNamed [ '0.4.27', '0.4.27' ]
28 silly lockFile 34e1b549-meanio-0-4-27 meanio@0.4.27
29 verbose lock meanio@0.4.27 /Users/aftabaig/.npm/34e1b549-meanio-0-4-27.lock
30 silly lockFile c4c367b0-mjs-org-meanio-meanio-0-4-27-tgz https://registry.npmjs.org/meanio/-/meanio-0.4.27.tgz
31 verbose lock https://registry.npmjs.org/meanio/-/meanio-0.4.27.tgz /Users/aftabaig/.npm/c4c367b0-mjs-org-meanio-meanio-0-4-27-tgz.lock
32 verbose addRemoteTarball [ 'https://registry.npmjs.org/meanio/-/meanio-0.4.27.tgz',
32 verbose addRemoteTarball   'c7545b2d8cc92914b589ad230c2d47b33645f02f' ]
33 info retry fetch attempt 1 at 06:06:24
34 verbose fetch to= /Users/aftabaig/tmp/npm-2255/1400807184208-0.8448959197849035/tmp.tgz
35 http GET https://registry.npmjs.org/meanio/-/meanio-0.4.27.tgz
36 http 200 https://registry.npmjs.org/meanio/-/meanio-0.4.27.tgz
37 silly shasum updated bytes 21435
38 info shasum c7545b2d8cc92914b589ad230c2d47b33645f02f
38 info shasum /Users/aftabaig/tmp/npm-2255/1400807184208-0.8448959197849035/tmp.tgz
39 verbose tar unpack /Users/aftabaig/tmp/npm-2255/1400807184208-0.8448959197849035/tmp.tgz
40 silly lockFile eb3ff4ee-84208-0-8448959197849035-package /Users/aftabaig/tmp/npm-2255/1400807184208-0.8448959197849035/package
41 verbose lock /Users/aftabaig/tmp/npm-2255/1400807184208-0.8448959197849035/package /Users/aftabaig/.npm/eb3ff4ee-84208-0-8448959197849035-package.lock
42 silly gunzTarPerm modes [ '755', '644' ]
43 silly gunzTarPerm extractEntry package.json
44 silly gunzTarPerm extractEntry .npmignore
45 silly gunzTarPerm extractEntry README.md
46 silly gunzTarPerm extractEntry Gruntfile.js
47 silly gunzTarPerm extractEntry index.js
48 silly gunzTarPerm extractEntry img/logo.txt
49 silly gunzTarPerm extractEntry img/meanlogo.png
50 silly gunzTarPerm extractEntry .jshintrc
51 silly gunzTarPerm extractEntry lib/cli.js
52 silly gunzTarPerm extractEntry lib/mean.js
53 silly gunzTarPerm extractEntry lib/mean0.3.0.js
54 silly gunzTarPerm extractEntry lib/mean0.3.1.js
55 silly gunzTarPerm extractEntry lib/scaffold.js
56 silly gunzTarPerm extractEntry lib/util.js
57 silly gunzTarPerm extractEntry lib/templates/package.json
58 silly gunzTarPerm extractEntry lib/templates/app.js
59 silly gunzTarPerm extractEntry lib/templates/assets.css
60 silly gunzTarPerm extractEntry lib/templates/client/controller.js
61 silly gunzTarPerm extractEntry lib/templates/client/routes.js
62 silly gunzTarPerm extractEntry lib/templates/client/service.js
63 silly gunzTarPerm extractEntry lib/templates/client/view.html
64 silly gunzTarPerm extractEntry lib/templates/server/routes.js
65 silly gunzTarPerm extractEntry lib/templates/server/view.html
66 silly gunzTarPerm extractEntry modules/package.js
67 silly gunzTarPerm extractEntry bin/mean
68 silly gunzTarPerm extractEntry bin/mean-docs
69 silly gunzTarPerm extractEntry bin/mean-init
70 silly gunzTarPerm extractEntry bin/mean-install
71 silly gunzTarPerm extractEntry bin/mean-list
72 silly gunzTarPerm extractEntry bin/mean-package
73 silly gunzTarPerm extractEntry bin/mean-status
74 silly gunzTarPerm extractEntry bin/mean-uninstall
75 silly gunzTarPerm extractEntry bin/mean-user
76 silly gunzTarPerm extractEntry test/bin/mean_test.js
77 verbose read json /Users/aftabaig/tmp/npm-2255/1400807184208-0.8448959197849035/package/package.json
78 silly lockFile eb3ff4ee-84208-0-8448959197849035-package /Users/aftabaig/tmp/npm-2255/1400807184208-0.8448959197849035/package
79 verbose from cache /Users/aftabaig/tmp/npm-2255/1400807184208-0.8448959197849035/package/package.json
80 verbose tar pack [ '/Users/aftabaig/.npm/meanio/0.4.27/package.tgz',
80 verbose tar pack   '/Users/aftabaig/tmp/npm-2255/1400807184208-0.8448959197849035/package' ]
81 verbose tarball /Users/aftabaig/.npm/meanio/0.4.27/package.tgz
82 verbose folder /Users/aftabaig/tmp/npm-2255/1400807184208-0.8448959197849035/package
83 silly lockFile 14f056cd-ig-npm-meanio-0-4-27-package-tgz /Users/aftabaig/.npm/meanio/0.4.27/package.tgz
84 verbose lock /Users/aftabaig/.npm/meanio/0.4.27/package.tgz /Users/aftabaig/.npm/14f056cd-ig-npm-meanio-0-4-27-package-tgz.lock
85 silly lockFile 14f056cd-ig-npm-meanio-0-4-27-package-tgz /Users/aftabaig/.npm/meanio/0.4.27/package.tgz
86 silly lockFile 27b35086-tabaig-npm-meanio-0-4-27-package /Users/aftabaig/.npm/meanio/0.4.27/package
87 verbose lock /Users/aftabaig/.npm/meanio/0.4.27/package /Users/aftabaig/.npm/27b35086-tabaig-npm-meanio-0-4-27-package.lock
88 silly lockFile 27b35086-tabaig-npm-meanio-0-4-27-package /Users/aftabaig/.npm/meanio/0.4.27/package
89 verbose tar unpack /Users/aftabaig/.npm/meanio/0.4.27/package.tgz
90 silly lockFile 27b35086-tabaig-npm-meanio-0-4-27-package /Users/aftabaig/.npm/meanio/0.4.27/package
91 verbose lock /Users/aftabaig/.npm/meanio/0.4.27/package /Users/aftabaig/.npm/27b35086-tabaig-npm-meanio-0-4-27-package.lock
92 silly gunzTarPerm modes [ '755', '644' ]
93 silly gunzTarPerm extractEntry package.json
94 silly gunzTarPerm extractEntry .npmignore
95 silly gunzTarPerm extractEntry README.md
96 silly gunzTarPerm extractEntry Gruntfile.js
97 silly gunzTarPerm extractEntry index.js
98 silly gunzTarPerm extractEntry img/logo.txt
99 silly gunzTarPerm extractEntry img/meanlogo.png
100 silly gunzTarPerm extractEntry bin/mean
101 silly gunzTarPerm extractEntry bin/mean-docs
102 silly gunzTarPerm extractEntry bin/mean-init
103 silly gunzTarPerm extractEntry bin/mean-install
104 silly gunzTarPerm extractEntry bin/mean-list
105 silly gunzTarPerm extractEntry bin/mean-package
106 silly gunzTarPerm extractEntry bin/mean-status
107 silly gunzTarPerm extractEntry bin/mean-uninstall
108 silly gunzTarPerm extractEntry bin/mean-user
109 silly gunzTarPerm extractEntry lib/cli.js
110 silly gunzTarPerm extractEntry lib/mean.js
111 silly gunzTarPerm extractEntry lib/mean0.3.0.js
112 silly gunzTarPerm extractEntry lib/mean0.3.1.js
113 silly gunzTarPerm extractEntry lib/scaffold.js
114 silly gunzTarPerm extractEntry lib/util.js
115 silly gunzTarPerm extractEntry lib/templates/package.json
116 silly gunzTarPerm extractEntry lib/templates/app.js
117 silly gunzTarPerm extractEntry lib/templates/assets.css
118 silly gunzTarPerm extractEntry lib/templates/client/controller.js
119 silly gunzTarPerm extractEntry lib/templates/client/routes.js
120 silly gunzTarPerm extractEntry lib/templates/client/service.js
121 silly gunzTarPerm extractEntry lib/templates/client/view.html
122 silly gunzTarPerm extractEntry lib/templates/server/routes.js
123 silly gunzTarPerm extractEntry lib/templates/server/view.html
124 silly gunzTarPerm extractEntry modules/package.js
125 silly gunzTarPerm extractEntry .jshintrc
126 silly gunzTarPerm extractEntry test/bin/mean_test.js
127 verbose read json /Users/aftabaig/.npm/meanio/0.4.27/package/package.json
128 silly lockFile 27b35086-tabaig-npm-meanio-0-4-27-package /Users/aftabaig/.npm/meanio/0.4.27/package
129 silly shasum updated bytes 21429
130 info shasum 8c75551a935bf91b44659a10710c594781cdbc9e
130 info shasum /Users/aftabaig/.npm/meanio/0.4.27/package.tgz
131 verbose from cache /Users/aftabaig/.npm/meanio/0.4.27/package/package.json
132 verbose chmod /Users/aftabaig/.npm/meanio/0.4.27/package.tgz 644
133 verbose chown /Users/aftabaig/.npm/meanio/0.4.27/package.tgz [ 501, 20 ]
134 silly lockFile c4c367b0-mjs-org-meanio-meanio-0-4-27-tgz https://registry.npmjs.org/meanio/-/meanio-0.4.27.tgz
135 silly lockFile 34e1b549-meanio-0-4-27 meanio@0.4.27
136 silly lockFile c47b6573-meanio meanio@
137 silly resolved [ { name: 'meanio',
137 silly resolved     version: '0.4.27',
137 silly resolved     preferGlobal: true,
137 silly resolved     description: 'Simple command line interface for installing and managing MEAN apps',
137 silly resolved     author: { name: 'linnovate' },
137 silly resolved     license: 'MIT',
137 silly resolved     main: 'index',
137 silly resolved     bin:
137 silly resolved      { mean: './bin/mean',
137 silly resolved        'mean-init': './bin/mean-init',
137 silly resolved        'mean-install': './bin/mean-install',
137 silly resolved        'mean-uninstall': './bin/mean-uninstall',
137 silly resolved        'mean-docs': './bin/mean-docs',
137 silly resolved        'mean-package': './bin/mean-package',
137 silly resolved        'mean-list': './bin/mean-list',
137 silly resolved        'mean-status': './bin/mean-status',
137 silly resolved        'mean-user': './bin/mean-user' },
137 silly resolved     repository:
137 silly resolved      { type: 'git',
137 silly resolved        url: 'https://github.com/linnovate/mean-cli.git' },
137 silly resolved     keywords: [ 'mean', 'meanio', 'mean.io' ],
137 silly resolved     engines: { node: '0.10.x', npm: '1.4.x' },
137 silly resolved     dependencies:
137 silly resolved      { chalk: '^0.4.0',
137 silly resolved        commander: '^2.2.0',
137 silly resolved        lodash: '^2.4.1',
137 silly resolved        mongodb: '^1.4.0',
137 silly resolved        npm: '^1.4.7',
137 silly resolved        opener: '^1.3.0',
137 silly resolved        shelljs: '^0.3.0',
137 silly resolved        swig: '^1.3.2' },
137 silly resolved     devDependencies:
137 silly resolved      { grunt: '^0.4.4',
137 silly resolved        'grunt-contrib-jshint': '^0.10.0',
137 silly resolved        'grunt-mocha-test': '^0.10.0',
137 silly resolved        mocha: '^1.18.2',
137 silly resolved        should: '^3.2.0' },
137 silly resolved     readme: '# [![MEAN Logo](http://www.mean.io/img/logos/meanlogo.png)](http://mean.io/) MEAN Command Line\n\n[![NPM version](https://badge.fury.io/js/meanio.svg)](http://badge.fury.io/js/meanio)\n[![Dependency Status](https://david-dm.org/linnovate/mean-cli.svg)](https://david-dm.org/linnovate/mean-cli)\n\nSource for npm package meanio. mean-cli is a core package of the mean.io project and is used primarily to manage packages for extending functionality, for example adding a package to enable inline editable tokens. \n\nThe cli provides a lot of useful functionality, such as scaffolding options to ceate new packages, assign roles to users, check the mongo status, add/remove packages and list currently installed packages.\n\nSee http://mean.io/#!/docs for more in-depth information about mean.\n\n## The repository contains\n* The bin file used for cli operations.\n* Core functionality for managing mean packages.\n\n## Basic Usage\n\n  Install Package:\n\n    $ sudo npm install -g meanio\n\n  Explore CLI functionality:\n\n    $ mean --help\n\n  Create a new mean app:\n\n    $ mean init <NameOfYourApp>\n\n  Install Dependencies:\n\n    $ cd <NameOfYourApp> && npm install\n\n  Create a sample mean package:\n\n    $ mean package <NameOfYourPackage>\n\n  Run your app:\n\n    $ grunt\n',
137 silly resolved     _id: 'meanio@0.4.27',
137 silly resolved     dist: { shasum: '8c75551a935bf91b44659a10710c594781cdbc9e' },
137 silly resolved     _from: 'meanio' } ]
138 info install meanio@0.4.27 into /usr/local/lib
139 info installOne meanio@0.4.27
140 warn engine meanio@0.4.27: wanted: {"node":"0.10.x","npm":"1.4.x"} (current: {"node":"v0.9.3-pre","npm":"1.1.63"})
141 verbose from cache /Users/aftabaig/.npm/meanio/0.4.27/package/package.json
142 info /usr/local/lib/node_modules/meanio unbuild
143 verbose read json /usr/local/lib/node_modules/meanio/package.json
144 verbose tar unpack /Users/aftabaig/.npm/meanio/0.4.27/package.tgz
145 silly lockFile 39ebf538-sr-local-lib-node-modules-meanio /usr/local/lib/node_modules/meanio
146 verbose lock /usr/local/lib/node_modules/meanio /Users/aftabaig/.npm/39ebf538-sr-local-lib-node-modules-meanio.lock
147 silly gunzTarPerm modes [ '755', '644' ]
148 silly gunzTarPerm extractEntry package.json
149 silly gunzTarPerm extractEntry .npmignore
150 silly gunzTarPerm extractEntry README.md
151 silly gunzTarPerm extractEntry Gruntfile.js
152 silly gunzTarPerm extractEntry index.js
153 silly gunzTarPerm extractEntry img/logo.txt
154 silly gunzTarPerm extractEntry img/meanlogo.png
155 silly gunzTarPerm extractEntry bin/mean
156 silly gunzTarPerm extractEntry bin/mean-docs
157 silly gunzTarPerm extractEntry bin/mean-init
158 silly gunzTarPerm extractEntry bin/mean-install
159 silly gunzTarPerm extractEntry bin/mean-list
160 silly gunzTarPerm extractEntry bin/mean-package
161 silly gunzTarPerm extractEntry bin/mean-status
162 silly gunzTarPerm extractEntry bin/mean-uninstall
163 silly gunzTarPerm extractEntry bin/mean-user
164 silly gunzTarPerm extractEntry lib/cli.js
165 silly gunzTarPerm extractEntry lib/mean.js
166 silly gunzTarPerm extractEntry lib/mean0.3.0.js
167 silly gunzTarPerm extractEntry lib/mean0.3.1.js
168 silly gunzTarPerm extractEntry lib/scaffold.js
169 silly gunzTarPerm extractEntry lib/util.js
170 silly gunzTarPerm extractEntry lib/templates/package.json
171 silly gunzTarPerm extractEntry lib/templates/app.js
172 silly gunzTarPerm extractEntry lib/templates/assets.css
173 silly gunzTarPerm extractEntry lib/templates/client/controller.js
174 silly gunzTarPerm extractEntry lib/templates/client/routes.js
175 silly gunzTarPerm extractEntry lib/templates/client/service.js
176 silly gunzTarPerm extractEntry lib/templates/client/view.html
177 silly gunzTarPerm extractEntry lib/templates/server/routes.js
178 silly gunzTarPerm extractEntry lib/templates/server/view.html
179 silly gunzTarPerm extractEntry modules/package.js
180 silly gunzTarPerm extractEntry .jshintrc
181 silly gunzTarPerm extractEntry test/bin/mean_test.js
182 verbose read json /usr/local/lib/node_modules/meanio/package.json
183 silly lockFile 39ebf538-sr-local-lib-node-modules-meanio /usr/local/lib/node_modules/meanio
184 info preinstall meanio@0.4.27
185 verbose from cache /usr/local/lib/node_modules/meanio/package.json
186 verbose readDependencies using package.json deps
187 verbose from cache /usr/local/lib/node_modules/meanio/package.json
188 verbose readDependencies using package.json deps
189 verbose cache add [ 'lodash@^2.4.1', null ]
190 silly cache add name=undefined spec="lodash@^2.4.1" args=["lodash@^2.4.1",null]
191 verbose parsed url { protocol: null,
191 verbose parsed url   slashes: null,
191 verbose parsed url   auth: null,
191 verbose parsed url   host: null,
191 verbose parsed url   port: null,
191 verbose parsed url   hostname: null,
191 verbose parsed url   hash: null,
191 verbose parsed url   search: null,
191 verbose parsed url   query: null,
191 verbose parsed url   pathname: 'lodash@^2.4.1',
191 verbose parsed url   path: 'lodash@^2.4.1',
191 verbose parsed url   href: 'lodash@^2.4.1' }
192 silly cache add name="lodash" spec="^2.4.1" args=["lodash","^2.4.1"]
193 verbose parsed url { protocol: null,
193 verbose parsed url   slashes: null,
193 verbose parsed url   auth: null,
193 verbose parsed url   host: null,
193 verbose parsed url   port: null,
193 verbose parsed url   hostname: null,
193 verbose parsed url   hash: null,
193 verbose parsed url   search: null,
193 verbose parsed url   query: null,
193 verbose parsed url   pathname: '^2.4.1',
193 verbose parsed url   path: '^2.4.1',
193 verbose parsed url   href: '^2.4.1' }
194 verbose addNamed [ 'lodash', '^2.4.1' ]
195 verbose addNamed [ null, null ]
196 silly lockFile 59759450-lodash-2-4-1 lodash@^2.4.1
197 verbose lock lodash@^2.4.1 /Users/aftabaig/.npm/59759450-lodash-2-4-1.lock
198 verbose cache add [ 'mongodb@^1.4.0', null ]
199 silly cache add name=undefined spec="mongodb@^1.4.0" args=["mongodb@^1.4.0",null]
200 verbose parsed url { protocol: null,
200 verbose parsed url   slashes: null,
200 verbose parsed url   auth: null,
200 verbose parsed url   host: null,
200 verbose parsed url   port: null,
200 verbose parsed url   hostname: null,
200 verbose parsed url   hash: null,
200 verbose parsed url   search: null,
200 verbose parsed url   query: null,
200 verbose parsed url   pathname: 'mongodb@^1.4.0',
200 verbose parsed url   path: 'mongodb@^1.4.0',
200 verbose parsed url   href: 'mongodb@^1.4.0' }
201 silly cache add name="mongodb" spec="^1.4.0" args=["mongodb","^1.4.0"]
202 verbose parsed url { protocol: null,
202 verbose parsed url   slashes: null,
202 verbose parsed url   auth: null,
202 verbose parsed url   host: null,
202 verbose parsed url   port: null,
202 verbose parsed url   hostname: null,
202 verbose parsed url   hash: null,
202 verbose parsed url   search: null,
202 verbose parsed url   query: null,
202 verbose parsed url   pathname: '^1.4.0',
202 verbose parsed url   path: '^1.4.0',
202 verbose parsed url   href: '^1.4.0' }
203 verbose addNamed [ 'mongodb', '^1.4.0' ]
204 verbose addNamed [ null, null ]
205 silly lockFile 7619eab2-mongodb-1-4-0 mongodb@^1.4.0
206 verbose lock mongodb@^1.4.0 /Users/aftabaig/.npm/7619eab2-mongodb-1-4-0.lock
207 verbose cache add [ 'npm@^1.4.7', null ]
208 silly cache add name=undefined spec="npm@^1.4.7" args=["npm@^1.4.7",null]
209 verbose parsed url { protocol: null,
209 verbose parsed url   slashes: null,
209 verbose parsed url   auth: null,
209 verbose parsed url   host: null,
209 verbose parsed url   port: null,
209 verbose parsed url   hostname: null,
209 verbose parsed url   hash: null,
209 verbose parsed url   search: null,
209 verbose parsed url   query: null,
209 verbose parsed url   pathname: 'npm@^1.4.7',
209 verbose parsed url   path: 'npm@^1.4.7',
209 verbose parsed url   href: 'npm@^1.4.7' }
210 silly cache add name="npm" spec="^1.4.7" args=["npm","^1.4.7"]
211 verbose parsed url { protocol: null,
211 verbose parsed url   slashes: null,
211 verbose parsed url   auth: null,
211 verbose parsed url   host: null,
211 verbose parsed url   port: null,
211 verbose parsed url   hostname: null,
211 verbose parsed url   hash: null,
211 verbose parsed url   search: null,
211 verbose parsed url   query: null,
211 verbose parsed url   pathname: '^1.4.7',
211 verbose parsed url   path: '^1.4.7',
211 verbose parsed url   href: '^1.4.7' }
212 verbose addNamed [ 'npm', '^1.4.7' ]
213 verbose addNamed [ null, null ]
214 silly lockFile 4bd85e6b-npm-1-4-7 npm@^1.4.7
215 verbose lock npm@^1.4.7 /Users/aftabaig/.npm/4bd85e6b-npm-1-4-7.lock
216 info addNameTag [ 'lodash', '^2.4.1' ]
217 info addNameTag [ 'mongodb', '^1.4.0' ]
218 verbose cache add [ 'opener@^1.3.0', null ]
219 silly cache add name=undefined spec="opener@^1.3.0" args=["opener@^1.3.0",null]
220 verbose parsed url { protocol: null,
220 verbose parsed url   slashes: null,
220 verbose parsed url   auth: null,
220 verbose parsed url   host: null,
220 verbose parsed url   port: null,
220 verbose parsed url   hostname: null,
220 verbose parsed url   hash: null,
220 verbose parsed url   search: null,
220 verbose parsed url   query: null,
220 verbose parsed url   pathname: 'opener@^1.3.0',
220 verbose parsed url   path: 'opener@^1.3.0',
220 verbose parsed url   href: 'opener@^1.3.0' }
221 silly cache add name="opener" spec="^1.3.0" args=["opener","^1.3.0"]
222 verbose parsed url { protocol: null,
222 verbose parsed url   slashes: null,
222 verbose parsed url   auth: null,
222 verbose parsed url   host: null,
222 verbose parsed url   port: null,
222 verbose parsed url   hostname: null,
222 verbose parsed url   hash: null,
222 verbose parsed url   search: null,
222 verbose parsed url   query: null,
222 verbose parsed url   pathname: '^1.3.0',
222 verbose parsed url   path: '^1.3.0',
222 verbose parsed url   href: '^1.3.0' }
223 verbose addNamed [ 'opener', '^1.3.0' ]
224 verbose addNamed [ null, null ]
225 silly lockFile d9b95368-opener-1-3-0 opener@^1.3.0
226 verbose lock opener@^1.3.0 /Users/aftabaig/.npm/d9b95368-opener-1-3-0.lock
227 verbose cache add [ 'shelljs@^0.3.0', null ]
228 silly cache add name=undefined spec="shelljs@^0.3.0" args=["shelljs@^0.3.0",null]
229 verbose parsed url { protocol: null,
229 verbose parsed url   slashes: null,
229 verbose parsed url   auth: null,
229 verbose parsed url   host: null,
229 verbose parsed url   port: null,
229 verbose parsed url   hostname: null,
229 verbose parsed url   hash: null,
229 verbose parsed url   search: null,
229 verbose parsed url   query: null,
229 verbose parsed url   pathname: 'shelljs@^0.3.0',
229 verbose parsed url   path: 'shelljs@^0.3.0',
229 verbose parsed url   href: 'shelljs@^0.3.0' }
230 silly cache add name="shelljs" spec="^0.3.0" args=["shelljs","^0.3.0"]
231 verbose parsed url { protocol: null,
231 verbose parsed url   slashes: null,
231 verbose parsed url   auth: null,
231 verbose parsed url   host: null,
231 verbose parsed url   port: null,
231 verbose parsed url   hostname: null,
231 verbose parsed url   hash: null,
231 verbose parsed url   search: null,
231 verbose parsed url   query: null,
231 verbose parsed url   pathname: '^0.3.0',
231 verbose parsed url   path: '^0.3.0',
231 verbose parsed url   href: '^0.3.0' }
232 verbose addNamed [ 'shelljs', '^0.3.0' ]
233 verbose addNamed [ null, null ]
234 silly lockFile 1ddaa962-shelljs-0-3-0 shelljs@^0.3.0
235 verbose lock shelljs@^0.3.0 /Users/aftabaig/.npm/1ddaa962-shelljs-0-3-0.lock
236 verbose cache add [ 'swig@^1.3.2', null ]
237 silly cache add name=undefined spec="swig@^1.3.2" args=["swig@^1.3.2",null]
238 verbose parsed url { protocol: null,
238 verbose parsed url   slashes: null,
238 verbose parsed url   auth: null,
238 verbose parsed url   host: null,
238 verbose parsed url   port: null,
238 verbose parsed url   hostname: null,
238 verbose parsed url   hash: null,
238 verbose parsed url   search: null,
238 verbose parsed url   query: null,
238 verbose parsed url   pathname: 'swig@^1.3.2',
238 verbose parsed url   path: 'swig@^1.3.2',
238 verbose parsed url   href: 'swig@^1.3.2' }
239 silly cache add name="swig" spec="^1.3.2" args=["swig","^1.3.2"]
240 verbose parsed url { protocol: null,
240 verbose parsed url   slashes: null,
240 verbose parsed url   auth: null,
240 verbose parsed url   host: null,
240 verbose parsed url   port: null,
240 verbose parsed url   hostname: null,
240 verbose parsed url   hash: null,
240 verbose parsed url   search: null,
240 verbose parsed url   query: null,
240 verbose parsed url   pathname: '^1.3.2',
240 verbose parsed url   path: '^1.3.2',
240 verbose parsed url   href: '^1.3.2' }
241 verbose addNamed [ 'swig', '^1.3.2' ]
242 verbose addNamed [ null, null ]
243 silly lockFile de2fbae8-swig-1-3-2 swig@^1.3.2
244 verbose lock swig@^1.3.2 /Users/aftabaig/.npm/de2fbae8-swig-1-3-2.lock
245 verbose cache add [ 'chalk@^0.4.0', null ]
246 silly cache add name=undefined spec="chalk@^0.4.0" args=["chalk@^0.4.0",null]
247 verbose parsed url { protocol: null,
247 verbose parsed url   slashes: null,
247 verbose parsed url   auth: null,
247 verbose parsed url   host: null,
247 verbose parsed url   port: null,
247 verbose parsed url   hostname: null,
247 verbose parsed url   hash: null,
247 verbose parsed url   search: null,
247 verbose parsed url   query: null,
247 verbose parsed url   pathname: 'chalk@^0.4.0',
247 verbose parsed url   path: 'chalk@^0.4.0',
247 verbose parsed url   href: 'chalk@^0.4.0' }
248 silly cache add name="chalk" spec="^0.4.0" args=["chalk","^0.4.0"]
249 verbose parsed url { protocol: null,
249 verbose parsed url   slashes: null,
249 verbose parsed url   auth: null,
249 verbose parsed url   host: null,
249 verbose parsed url   port: null,
249 verbose parsed url   hostname: null,
249 verbose parsed url   hash: null,
249 verbose parsed url   search: null,
249 verbose parsed url   query: null,
249 verbose parsed url   pathname: '^0.4.0',
249 verbose parsed url   path: '^0.4.0',
249 verbose parsed url   href: '^0.4.0' }
250 verbose addNamed [ 'chalk', '^0.4.0' ]
251 verbose addNamed [ null, null ]
252 silly lockFile b2f4396d-chalk-0-4-0 chalk@^0.4.0
253 verbose lock chalk@^0.4.0 /Users/aftabaig/.npm/b2f4396d-chalk-0-4-0.lock
254 verbose cache add [ 'commander@^2.2.0', null ]
255 silly cache add name=undefined spec="commander@^2.2.0" args=["commander@^2.2.0",null]
256 verbose parsed url { protocol: null,
256 verbose parsed url   slashes: null,
256 verbose parsed url   auth: null,
256 verbose parsed url   host: null,
256 verbose parsed url   port: null,
256 verbose parsed url   hostname: null,
256 verbose parsed url   hash: null,
256 verbose parsed url   search: null,
256 verbose parsed url   query: null,
256 verbose parsed url   pathname: 'commander@^2.2.0',
256 verbose parsed url   path: 'commander@^2.2.0',
256 verbose parsed url   href: 'commander@^2.2.0' }
257 silly cache add name="commander" spec="^2.2.0" args=["commander","^2.2.0"]
258 verbose parsed url { protocol: null,
258 verbose parsed url   slashes: null,
258 verbose parsed url   auth: null,
258 verbose parsed url   host: null,
258 verbose parsed url   port: null,
258 verbose parsed url   hostname: null,
258 verbose parsed url   hash: null,
258 verbose parsed url   search: null,
258 verbose parsed url   query: null,
258 verbose parsed url   pathname: '^2.2.0',
258 verbose parsed url   path: '^2.2.0',
258 verbose parsed url   href: '^2.2.0' }
259 verbose addNamed [ 'commander', '^2.2.0' ]
260 verbose addNamed [ null, null ]
261 silly lockFile 2507b88a-commander-2-2-0 commander@^2.2.0
262 verbose lock commander@^2.2.0 /Users/aftabaig/.npm/2507b88a-commander-2-2-0.lock
263 info addNameTag [ 'npm', '^1.4.7' ]
264 verbose url raw lodash
265 verbose url resolving [ 'https://registry.npmjs.org/', './lodash' ]
266 verbose url resolved https://registry.npmjs.org/lodash
267 info trying registry request attempt 1 at 06:06:28
268 http GET https://registry.npmjs.org/lodash
269 info addNameTag [ 'shelljs', '^0.3.0' ]
270 info addNameTag [ 'swig', '^1.3.2' ]
271 verbose url raw npm
272 verbose url resolving [ 'https://registry.npmjs.org/', './npm' ]
273 verbose url resolved https://registry.npmjs.org/npm
274 info trying registry request attempt 1 at 06:06:28
275 http GET https://registry.npmjs.org/npm
276 info addNameTag [ 'commander', '^2.2.0' ]
277 info addNameTag [ 'opener', '^1.3.0' ]
278 verbose url raw swig
279 verbose url resolving [ 'https://registry.npmjs.org/', './swig' ]
280 verbose url resolved https://registry.npmjs.org/swig
281 info trying registry request attempt 1 at 06:06:28
282 http GET https://registry.npmjs.org/swig
283 info addNameTag [ 'chalk', '^0.4.0' ]
284 verbose url raw opener
285 verbose url resolving [ 'https://registry.npmjs.org/', './opener' ]
286 verbose url resolved https://registry.npmjs.org/opener
287 info trying registry request attempt 1 at 06:06:28
288 http GET https://registry.npmjs.org/opener
289 verbose url raw chalk
290 verbose url resolving [ 'https://registry.npmjs.org/', './chalk' ]
291 verbose url resolved https://registry.npmjs.org/chalk
292 info trying registry request attempt 1 at 06:06:28
293 http GET https://registry.npmjs.org/chalk
294 verbose url raw commander
295 verbose url resolving [ 'https://registry.npmjs.org/', './commander' ]
296 verbose url resolved https://registry.npmjs.org/commander
297 info trying registry request attempt 1 at 06:06:29
298 verbose etag "4CPQDKBY4I0G4U29GBRDT2I26"
299 http GET https://registry.npmjs.org/commander
300 verbose url raw shelljs
301 verbose url resolving [ 'https://registry.npmjs.org/', './shelljs' ]
302 verbose url resolved https://registry.npmjs.org/shelljs
303 info trying registry request attempt 1 at 06:06:29
304 verbose etag "9K09LM52RY6BQEXVRA3QQNNH5"
305 http GET https://registry.npmjs.org/shelljs
306 verbose url raw mongodb
307 verbose url resolving [ 'https://registry.npmjs.org/', './mongodb' ]
308 verbose url resolved https://registry.npmjs.org/mongodb
309 info trying registry request attempt 1 at 06:06:29
310 verbose etag "BF70OJP53RZ6YNGV08S65XUL9"
311 http GET https://registry.npmjs.org/mongodb
312 http 200 https://registry.npmjs.org/chalk
313 silly registry.get cb [ 200,
313 silly registry.get   { date: 'Fri, 23 May 2014 01:06:30 GMT',
313 silly registry.get     server: 'CouchDB/1.5.0 (Erlang OTP/R14B04)',
313 silly registry.get     etag: '"BCDT5C96Y40NXJWCEEL8VVHZ7"',
313 silly registry.get     'content-type': 'application/json',
313 silly registry.get     via: '1.1 varnish',
313 silly registry.get     'cache-control': 'max-age=1',
313 silly registry.get     'content-length': '12665',
313 silly registry.get     'accept-ranges': 'bytes',
313 silly registry.get     age: '69',
313 silly registry.get     'x-served-by': 'cache-v37-ASH, cache-at52-ATL',
313 silly registry.get     'x-cache': 'HIT, HIT',
313 silly registry.get     'x-cache-hits': '1, 1',
313 silly registry.get     'x-timer': 'S1400802398.130200148,VS0,VS7,VE7,VE4792613',
313 silly registry.get     vary: 'Accept',
313 silly registry.get     'keep-alive': 'timeout=10, max=50',
313 silly registry.get     connection: 'Keep-Alive' } ]
314 silly lockFile b2f4396d-chalk-0-4-0 chalk@^0.4.0
315 verbose about to build /usr/local/lib/node_modules/meanio
316 info /usr/local/lib/node_modules/meanio unbuild
317 verbose from cache /usr/local/lib/node_modules/meanio/package.json
318 info preuninstall meanio@0.4.27
319 info uninstall meanio@0.4.27
320 verbose true,/usr/local/lib/node_modules,/usr/local/lib/node_modules unbuild meanio@0.4.27
321 verbose /usr/local/bin,[object Object] binRoot
322 info postuninstall meanio@0.4.27
323 error Error: No compatible version found: chalk@'^0.4.0'
323 error Valid install targets:
323 error ["0.1.0","0.1.1","0.2.0","0.2.1","0.3.0","0.4.0"]
323 error     at installTargetsError (/usr/local/lib/node_modules/npm/lib/cache.js:553:10)
323 error     at /usr/local/lib/node_modules/npm/lib/cache.js:477:15
323 error     at saved (/usr/local/lib/node_modules/npm/node_modules/npm-registry-client/lib/get.js:138:7)
323 error     at /usr/local/lib/node_modules/npm/node_modules/graceful-fs/graceful-fs.js:218:7
323 error     at Object.oncomplete (fs.js:308:15)
323 error     at process._makeCallback (node.js:248:20)
324 error If you need help, you may report this log at:
324 error     <http://github.com/isaacs/npm/issues>
324 error or email it to:
324 error     <npm-@googlegroups.com>
325 error System Darwin 12.5.0
326 error command "/usr/local/bin/node" "/usr/local/bin/npm" "install" "-g" "meanio"
327 error cwd /Users/aftabaig/Projects/Flash/Code/Backends/py_dz
328 error node -v v0.9.3-pre
329 error npm -v 1.1.63
330 verbose exit [ 1, true ]
